Midterm - completed with help from Teresa
…
original <- map_df(c(15:18), download_file) 

df <- janitor::clean_names(original) %>% 
  filter(student_group == "White" | student_group == "Hispanic/Latino") %>% 
  dplyr::select(academic_year, district, school, student_group, grade_level, 
         number_level_4, number_level_3, number_level_2, number_level_1) %>% 
  gather(level, n, number_level_4:number_level_1) %>% 
  filter(!is.na(n)) %>% 
  mutate(level = parse_number(level)) %>% 
  arrange(academic_year, district, student_group, grade_level, level)

df

## # A tibble: 90,576 x 7
##    academic_year district  school     student_group grade_level level     n
##    <chr>         <chr>     <chr>      <chr>         <chr>       <dbl> <dbl>
##  1 2014-2015     Adrian S Adrian El Hispanic/Lat Grade 3         1     2
##  2 2014-2015     Adrian S Adrian El Hispanic/Lat Grade 3         2     1
##  3 2014-2015     Adrian S Adrian El Hispanic/Lat Grade 3         3     2
##  4 2014-2015     Adrian S Adrian El Hispanic/Lat Grade 3         4     1
##  5 2014-2015     Adrian S Adrian El Hispanic/Lat Grade 6         1     2
##  6 2014-2015     Adrian S Adrian El Hispanic/Lat Grade 6         2     3
##  7 2014-2015     Adrian S Adrian El Hispanic/Lat Grade 6         3     2
##  8 2014-2015     Adrian S Adrian El Hispanic/Lat Grade 6         4     0
##  9 2014-2015     Adrian S Adrian El Hispanic/Lat Grade 7         1     2
## 10 2014-2015     Adrian S Adrian El Hispanic/Lat Grade 7         2     2
## #  with 90,566 more rows

Calculate the cumulative n for each school by student group, grade, and academic year. The result should look like the below. Hint, look at ?base::cumsum

df_cn <- df %>% group_by(academic_year, school, student_group, grade_level) %>% 
  mutate(cn = cumsum(n))

df_cn

## # A tibble: 90,576 x 8
## # Groups:   academic_year, school, student_group, grade_level [21,921]
##    academic_year district school student_group grade_level level     n
##    <chr>         <chr>    <chr>  <chr>         <chr>       <dbl> <dbl>
##  1 2014-2015     Adrian  Adria Hispanic/Lat Grade 3         1     2
##  2 2014-2015     Adrian  Adria Hispanic/Lat Grade 3         2     1
##  3 2014-2015     Adrian  Adria Hispanic/Lat Grade 3         3     2
##  4 2014-2015     Adrian  Adria Hispanic/Lat Grade 3         4     1
##  5 2014-2015     Adrian  Adria Hispanic/Lat Grade 6         1     2
##  6 2014-2015     Adrian  Adria Hispanic/Lat Grade 6         2     3
##  7 2014-2015     Adrian  Adria Hispanic/Lat Grade 6         3     2
##  8 2014-2015     Adrian  Adria Hispanic/Lat Grade 6         4     0
##  9 2014-2015     Adrian  Adria Hispanic/Lat Grade 7         1     2
## 10 2014-2015     Adrian  Adria Hispanic/Lat Grade 7         2     2
## #  with 90,566 more rows, and 1 more variable: cn <dbl>

Reformat the data so it looks like the below, removing n and filling by cn. Remove rows that have missing data for either student group.

df_group <- df_cn %>%
  select(-n) %>% 
  spread(student_group, cn) %>% 
  janitor::clean_names() %>% 
  filter(!is.na(hispanic_latino), !is.na(white))

df_group  

## # A tibble: 33,948 x 7
## # Groups:   academic_year, school, grade_level [8,217]
##    academic_year district  school   grade_level level hispanic_latino white
##    <chr>         <chr>     <chr>    <chr>       <dbl>           <dbl> <dbl>
##  1 2014-2015     Adrian S Adrian  Grade 3         1               2     0
##  2 2014-2015     Adrian S Adrian  Grade 3         2               3     4
##  3 2014-2015     Adrian S Adrian  Grade 3         3               5     7
##  4 2014-2015     Adrian S Adrian  Grade 3         4               6    11
##  5 2014-2015     Adrian S Adrian  Grade 6         1               2     0
##  6 2014-2015     Adrian S Adrian  Grade 6         2               5     3
##  7 2014-2015     Adrian S Adrian  Grade 6         3               7     8
##  8 2014-2015     Adrian S Adrian  Grade 6         4               7     9
##  9 2014-2015     Adrian S Adrian  Grade 7         1               2     3
## 10 2014-2015     Adrian S Adrian  Grade 7         2               4     5
## #  with 33,938 more rows
…
df_es <- df_group %>%
  group_by(academic_year, grade_level, school) %>%
  nest() %>%
  mutate(es = map_dbl(data, ~ gap(.x, "white", "hispanic_latino")))

df_es

## # A tibble: 8,217 x 5
##    academic_year grade_level   school                data                es
##    <chr>         <chr>         <chr>                 <list>           <dbl>
##  1 2014-2015     Grade 3       Adrian Elementary Sc <tibble [4   -0.609 
##  2 2014-2015     Grade 6       Adrian Elementary Sc <tibble [4   -0.972 
##  3 2014-2015     Grade 7       Adrian Elementary Sc <tibble [4   -0.609 
##  4 2014-2015     Grade 3       Amity Elementary Sch <tibble [4   -0.419 
##  5 2014-2015     Grade 4       Amity Elementary Sch <tibble [4   -0.849 
##  6 2014-2015     Grade 5       Amity Elementary Sch <tibble [4   -0.822 
##  7 2014-2015     Grade 6       Amity Middle School   <tibble [4   -0.106 
##  8 2014-2015     Grade 7       Amity Middle School   <tibble [4   -0.556 
##  9 2014-2015     Grade 8       Amity Middle School   <tibble [4   -0.0322
## 10 2014-2015     Grade HS (11) Ashland High School   <tibble [4   -0.804 
## #  with 8,207 more rows

df_es_district <- df_group %>% 
  group_by(academic_year, grade_level, school, district) %>% 
  nest() %>% 
  mutate(es = map_dbl(data, ~ gap(.x, "white", "hispanic_latino")))

df_es_district

## # A tibble: 8,487 x 6
##    academic_year grade_level  school          district   data            es
##    <chr>         <chr>        <chr>           <chr>      <list>       <dbl>
##  1 2014-2015     Grade 3      Adrian Element Adrian SD <tibble [ -0.609 
##  2 2014-2015     Grade 6      Adrian Element Adrian SD <tibble [ -0.972 
##  3 2014-2015     Grade 7      Adrian Element Adrian SD <tibble [ -0.609 
##  4 2014-2015     Grade 3      Amity Elementa Amity SD  <tibble [ -0.419 
##  5 2014-2015     Grade 4      Amity Elementa Amity SD  <tibble [ -0.849 
##  6 2014-2015     Grade 5      Amity Elementa Amity SD  <tibble [ -0.822 
##  7 2014-2015     Grade 6      Amity Middle S Amity SD  <tibble [ -0.106 
##  8 2014-2015     Grade 7      Amity Middle S Amity SD  <tibble [ -0.556 
##  9 2014-2015     Grade 8      Amity Middle S Amity SD  <tibble [ -0.0322
## 10 2014-2015     Grade HS (1 Ashland High S Ashland S <tibble [ -0.804 
## #  with 8,477 more rows
…
